<?xml version="1.0" encoding="UTF-8"?>
<session version="1.0">
<refactoring accessors="true" comment="Delete element from project &apos;EmpWebApp&apos;&#x0D;&#x0A;- Original project: &apos;EmpWebApp&apos;&#x0D;&#x0A;- Original element: &apos;com.web.HRHomePage.java&apos;" description="Delete element" element1="/src&lt;com.web{HRHomePage.java" elements="1" flags="589830" id="org.eclipse.jdt.ui.delete" resources="0" stamp="1700737697355" subPackages="false" version="1.0"/>
</session>